Introduction to Tidyverse
…
ℹ Use `spec()` to retrieve the full column specification for this data.
ℹ Specify the column types or set `show_col_types = FALSE` to quiet this message.

bodysize$height <- bodysize$stature/10
bodysize$age <- bodysize$age/12
bodysize$year_old <- floor(bodysize$age)
bodysize$gender <- factor(bodysize$gender)
bodysize

# A tibble: 3,741 × 14
   weight stature  head shoulder hand_l hand_w chest waist foot_l foot_w gender
    <dbl>   <dbl> <dbl>    <dbl>  <dbl>  <dbl> <dbl> <dbl>  <dbl>  <dbl> <fct> 
 1   15.8    1033   498      282    120     55   526   475    163     67 F     
 2   17.9    1039   506      273    121     56   564   498    163     67 M     
 3   23.5    1112   512      309    121     59   601   520    171     65 F     
 4   16.8     997   489      253    116     51   532   491    163     61 F     
 5   15.3     997   473      273    114     51   501   465    167     64 F     
 6   18.3     987   513      279    114     55   558   503    164     66 M     
 7   13.7     941   507      249    101     52   503   459    150     61 M     
 8   13.8     933   490      251    109     50   502   461    150     61 F     
 9   19.8    1164   529      296    125     59   553   507    175     69 F     
10   19.2    1100   524      284    123     56   563   535    172     65 F     
# ℹ 3,731 more rows
# ℹ 3 more variables: age <dbl>, height <dbl>, year_old <dbl>
…
If we need to convert a data frame to a tidyverse tibble we can use the tibble function:

# if we have a data.frame which is not already a tibble
# we can think of data frames and tibbles as being the same
# one difference is that tibbles don't have row names/labels
bodysize <- tibble(bodysize)

The select command

Select allows us to select columns from a data frame.

bodysize_modified <- select(bodysize, height, gender, age, year_old)
bodysize_modified

# A tibble: 3,741 × 4
   height gender   age year_old
    <dbl> <fct>  <dbl>    <dbl>
 1  103.  F       4.17        4
 2  104.  M       4.25        4
 3  111.  F       4.42        4
 4   99.7 F       3.83        3
 5   99.7 F       3.42        3
 6   98.7 M       3.67        3
 7   94.1 M       3.33        3
 8   93.3 F       3.58        3
 9  116.  F       5.5         5
10  110   F       5.17        5
# ℹ 3,731 more rows
…
The mutate command

Mutate allows us to take columns and use them to create new columns

bodysize_modified <- mutate(bodysize, height_m = height/100)
bodysize_modified

# A tibble: 3,741 × 15
   weight stature  head shoulder hand_l hand_w chest waist foot_l foot_w gender
    <dbl>   <dbl> <dbl>    <dbl>  <dbl>  <dbl> <dbl> <dbl>  <dbl>  <dbl> <fct> 
 1   15.8    1033   498      282    120     55   526   475    163     67 F     
 2   17.9    1039   506      273    121     56   564   498    163     67 M     
 3   23.5    1112   512      309    121     59   601   520    171     65 F     
 4   16.8     997   489      253    116     51   532   491    163     61 F     
 5   15.3     997   473      273    114     51   501   465    167     64 F     
 6   18.3     987   513      279    114     55   558   503    164     66 M     
 7   13.7     941   507      249    101     52   503   459    150     61 M     
 8   13.8     933   490      251    109     50   502   461    150     61 F     
 9   19.8    1164   529      296    125     59   553   507    175     69 F     
10   19.2    1100   524      284    123     56   563   535    172     65 F     
# ℹ 3,731 more rows
# ℹ 4 more variables: age <dbl>, height <dbl>, year_old <dbl>, height_m <dbl>
…
ℹ Use `spec()` to retrieve the full column specification for this data.
ℹ Specify the column types or set `show_col_types = FALSE` to quiet this message.

bodysize_mod <- mutate(bodysize, 
                       age = age/12,
                       gender = factor(gender),
                       year_old = floor(age),
                       height = stature/10)
bodysize_mod

# A tibble: 3,741 × 14
   weight stature  head shoulder hand_l hand_w chest waist foot_l foot_w gender
    <dbl>   <dbl> <dbl>    <dbl>  <dbl>  <dbl> <dbl> <dbl>  <dbl>  <dbl> <fct> 
 1   15.8    1033   498      282    120     55   526   475    163     67 F     
 2   17.9    1039   506      273    121     56   564   498    163     67 M     
 3   23.5    1112   512      309    121     59   601   520    171     65 F     
 4   16.8     997   489      253    116     51   532   491    163     61 F     
 5   15.3     997   473      273    114     51   501   465    167     64 F     
 6   18.3     987   513      279    114     55   558   503    164     66 M     
 7   13.7     941   507      249    101     52   503   459    150     61 M     
 8   13.8     933   490      251    109     50   502   461    150     61 F     
 9   19.8    1164   529      296    125     59   553   507    175     69 F     
10   19.2    1100   524      284    123     56   563   535    172     65 F     
# ℹ 3,731 more rows
# ℹ 3 more variables: age <dbl>, year_old <dbl>, height <dbl>

The arrange command

Arrange allows us to sort data

sorted_by_height <- arrange(bodysize_mod, height)
sorted_by_height

# A tibble: 3,741 × 14
   weight stature  head shoulder hand_l hand_w chest waist foot_l foot_w gender
    <dbl>   <dbl> <dbl>    <dbl>  <dbl>  <dbl> <dbl> <dbl>  <dbl>  <dbl> <fct> 
 1   10.4     813   497      213     87     42   464   422    116     56 M     
 2   10.9     833   458      213     93     46   450   428    128     56 M     
 3   10.7     838   472      234     91     48   444   441    119     52 F     
 4   12.6     842   473      232    100     50   478   469    131     62 F     
 5   11.9     842   497      237     91     46   498   485    132     60 F     
 6   11.5     846   467      240     97     45   467   457    123     53 F     
 7   11.6     852   481      207     94     45   459   461    134     53 F     
 8   12.4     854   477      232     99     46   491   500    131     53 F     
 9   12.1     855   479      224     93     45   473   457    129     58 M     
10   14.1     858   490      261    102     54   484   476    142     63 F     
# ℹ 3,731 more rows
# ℹ 3 more variables: age <dbl>, year_old <dbl>, height <dbl>

sorted_by_height2 <- arrange(bodysize_mod, desc(height) )
sorted_by_height2

# A tibble: 3,741 × 14
   weight stature  head shoulder hand_l hand_w chest waist foot_l foot_w gender
    <dbl>   <dbl> <dbl>    <dbl>  <dbl>  <dbl> <dbl> <dbl>  <dbl>  <dbl> <fct> 
 1  114.     1944   594      509    192     96  1075  1053    301    128 M     
 2   84.8    1931   580      450    212    101   941   815    300    111 M     
 3   78.7    1896   591      444    217     95   939   752    300    104 M     
 4   85.4    1884   571      492    208     99  1005   804    298    109 M     
 5   96.7    1883   583      467    193     88  1079   965    272    101 M     
 6   72.6    1880   558      441    194     89   916   762    273    104 M     
 7   74.4    1878   566      459    199     88   906   773    275    104 M     
 8   72.8    1876   552      461    194     89   907   734    282    112 M     
 9   94.3    1868   577      454    198     91  1006   965    281     99 M     
10   83.4    1868   573      502    192     89  1038   784    269    107 M     
# ℹ 3,731 more rows
# ℹ 3 more variables: age <dbl>, year_old <dbl>, height <dbl>
…
