Pipes, missing data and ggplot
…
                     ses = factor(ses, levels = c(1,2,3),
                                       labels = c("low", 
                                                  "middle", 
                                                  "high")),
                     schtyp = factor(schtyp, levels = c(1,2),
                                       labels = c("public", 
                                                  "private")),
                     gender = factor(female, levels = c(0,1),
                                       labels = c("male", 
                                                  "female"))
                     )
highschool <- select(highschool, -female)
highschool

# A tibble: 200 × 11
      id race          ses   schtyp  prog  read write  math science socst gender
   <dbl> <fct>         <fct> <fct>  <dbl> <dbl> <dbl> <dbl>   <dbl> <dbl> <fct> 
 1    70 white         low   public     1    57    52    41      47    57 male  
 2   121 white         midd… public     3    68    59    53      63    61 female
 3    86 white         high  public     1    44    33    54      58    31 male  
 4   141 white         high  public     3    63    44    47      53    56 male  
 5   172 white         midd… public     2    47    52    57      53    61 male  
 6   113 white         midd… public     2    44    52    51      63    61 male  
 7    50 african-amer… midd… public     1    50    59    42      53    61 male  
 8    11 hispanic      midd… public     2    34    46    45      39    36 male  
 9    84 white         midd… public     1    63    57    54      58    51 male  
10    48 african-amer… midd… public     2    57    55    52      50    51 male  
# ℹ 190 more rows

renaming columns with rename

highschool <- rename(highschool, 
                     socioeconomic_group = ses,
                     racial_group = race,
                     school_type = schtyp,
                     )
highschool

# A tibble: 200 × 11
      id racial_group    socioeconomic_group school_type  prog  read write  math
   <dbl> <fct>           <fct>               <fct>       <dbl> <dbl> <dbl> <dbl>
 1    70 white           low                 public          1    57    52    41
 2   121 white           middle              public          3    68    59    53
 3    86 white           high                public          1    44    33    54
 4   141 white           high                public          3    63    44    47
 5   172 white           middle              public          2    47    52    57
 6   113 white           middle              public          2    44    52    51
 7    50 african-americ… middle              public          1    50    59    42
 8    11 hispanic        middle              public          2    34    46    45
 9    84 white           middle              public          1    63    57    54
10    48 african-americ… middle              public          2    57    55    52
# ℹ 190 more rows
# ℹ 3 more variables: science <dbl>, socst <dbl>, gender <fct>
…
Data frame containing only student scores

# scores <- select(highschool, 
#                  read,
#                  write,
#                  math,
#                  science,
#                  socst)
# better way

scores <- select(highschool, id, read:socst )
                 
scores

# A tibble: 200 × 6
      id  read write  math science socst
   <dbl> <dbl> <dbl> <dbl>   <dbl> <dbl>
 1    70    57    52    41      47    57
 2   121    68    59    53      63    61
 3    86    44    33    54      58    31
 4   141    63    44    47      53    56
 5   172    47    52    57      53    61
 6   113    44    52    51      63    61
 7    50    50    59    42      53    61
 8    11    34    46    45      39    36
 9    84    63    57    54      58    51
10    48    57    55    52      50    51
# ℹ 190 more rows
…
Rows: 200 Columns: 11
── Column specification ────────────────────────────────────────────────────────
Delimiter: ","
dbl (11): id, female, race, ses, schtyp, prog, read, write, math, science, s...

ℹ Use `spec()` to retrieve the full column specification for this data.
ℹ Specify the column types or set `show_col_types = FALSE` to quiet this message.

highschool

# A tibble: 200 × 11
      id racial_group    socioeconomic_group school_type  prog  read write  math
   <dbl> <fct>           <fct>               <fct>       <dbl> <dbl> <dbl> <dbl>
 1    70 white           low                 public          1    57    52    41
 2   121 white           middle              public          3    68    59    53
 3    86 white           high                public          1    44    33    54
 4   141 white           high                public          3    63    44    47
 5   172 white           middle              public          2    47    52    57
 6   113 white           middle              public          2    44    52    51
 7    50 african-americ… middle              public          1    50    59    42
 8    11 hispanic        middle              public          2    34    46    45
 9    84 white           middle              public          1    63    57    54
10    48 african-americ… middle              public          2    57    55    52
# ℹ 190 more rows
# ℹ 3 more variables: science <dbl>, socst <dbl>, gender <fct>
…
